{
  "project_info": {
    "project_number": "751204262231",
    "firebase_url": "https://dual-wings.firebaseio.com",
    "project_id": "dual-wings",
    "storage_bucket": "dual-wings.appspot.com"
  },
  "client": [
    {
      "client_info": {
        "mobilesdk_app_id": "1:751204262231:android:0b42a445f5fb7f6e",
        "android_client_info": {
          "package_name": "com.dualwings.dualwings"
        }
      },
      "oauth_client": [
        {
          "client_id": "751204262231-q01orv086h9equhot8731pnqtv8q58ig.apps.googleusercontent.com",
          "client_type": 3
        }
      ],
      "api_key": [
        {
          "current_key": "AIzaSyCmr0L9IgBkEhmmt1NKAS_aE-KS8lJursw"
        }
      ],
      "services": {
        "appinvite_service": {
          "other_platform_oauth_client": [
            {
              "client_id": "751204262231-q01orv086h9equhot8731pnqtv8q58ig.apps.googleusercontent.com",
              "client_type": 3
            }
          ]
        }
      }
    }
  ],
  "configuration_version": "1"
}